{
  "name": "Vertical Window List",
  "description": "Displays opened windows in vertical panel with productivity perks\n\n- left click to open favorites / activate window / activate previous window\n- right click to close window\n- middle click to rename window / open extension settings\n- drag-and-drop to re-arrange windows\n- mouse wheel to cycle windows\n\nUseful for large displays. Adjustable panel width, transparency and other settings",
  "uuid": "vertical-window-list@student.gitlab.com",
  "shell-version": [
   "45", "46", "47"
  ],
  "url": "https://gitlab.com/student/vertical-window-list",
  "version": 47.01,
  "settings-schema": "org.gnome.shell.extensions.vertical-window-list"
}
